%YAML 1.1
%TAG !u! tag:unity3d.com,2011:
--- !u!1 &6917623904148707255
GameObject:
  m_ObjectHideFlags: 0
  m_CorrespondingSourceObject: {fileID: 0}
  m_PrefabInstance: {fileID: 0}
  m_PrefabAsset: {fileID: 0}
  serializedVersion: 6
  m_Component:
  - component: {fileID: 6917623904148707254}
  - component: {fileID: 6917623904148707253}
  - component: {fileID: 6917623904148707252}
  m_Layer: 0
  m_Name: ChatGUI
  m_TagString: Untagged
  m_Icon: {fileID: 0}
  m_NavMeshLayer: 0
  m_StaticEditorFlags: 0
  m_IsActive: 1
--- !u!4 &6917623904148707254
Transform:
  m_ObjectHideFlags: 0
  m_CorrespondingSourceObject: {fileID: 0}
  m_PrefabInstance: {fileID: 0}
  m_PrefabAsset: {fileID: 0}
  m_GameObject: {fileID: 6917623904148707255}
  m_LocalRotation: {x: 0, y: 0, z: 0, w: 1}
  m_LocalPosition: {x: 0, y: 0, z: 0}
  m_LocalScale: {x: 1, y: 1, z: 1}
  m_Children: []
  m_Father: {fileID: 0}
  m_RootOrder: 0
  m_LocalEulerAnglesHint: {x: 0, y: 0, z: 0}
--- !u!114 &6917623904148707253
MonoBehaviour:
  m_ObjectHideFlags: 0
  m_CorrespondingSourceObject: {fileID: 0}
  m_PrefabInstance: {fileID: 0}
  m_PrefabAsset: {fileID: 0}
  m_GameObject: {fileID: 6917623904148707255}
  m_Enabled: 1
  m_EditorHideFlags: 0
  m_Script: {fileID: 11500000, guid: 02d148d0890b2d44dbdf7f1c1b39a499, type: 3}
  m_Name: 
  m_EditorClassIdentifier: 
  sendMsgToInputFieldRef: {fileID: 0}
  ChannelsToJoinOnConnect: []
  FriendsList:
  - Joe
  - Jane
  - Bob
  HistoryLengthToFetch: 0
  missingAppIdErrorPanel: {fileID: 0}
  ConnectingLabel: {fileID: 0}
  ChatPanel: {fileID: 0}
  UserIdFormPanel: {fileID: 0}
  InputFieldChat: {fileID: 0}
  CurrentChannelText: {fileID: 0}
  ChannelToggleToInstantiate: {fileID: 0}
  FriendListUiItemtoInstantiate: {fileID: 0}
  ShowState: 1
  Title: {fileID: 0}
  StateText: {fileID: 0}
  UserIdText: {fileID: 0}
  TestLength: 2048
--- !u!114 &6917623904148707252
MonoBehaviour:
  m_ObjectHideFlags: 0
  m_CorrespondingSourceObject: {fileID: 0}
  m_PrefabInstance: {fileID: 0}
  m_PrefabAsset: {fileID: 0}
  m_GameObject: {fileID: 6917623904148707255}
  m_Enabled: 1
  m_EditorHideFlags: 0
  m_Script: {fileID: 11500000, guid: 696a5174ff5e707479b3540eb56d14b7, type: 3}
  m_Name: 
  m_EditorClassIdentifier: 
  chatNewComponent: {fileID: 6917623904148707253}
  idInput: {fileID: 0}
