%YAML 1.1
%TAG !u! tag:unity3d.com,2011:
--- !u!30 &1
GraphicsSettings:
  m_ObjectHideFlags: 0
  serializedVersion: 12
  m_Deferred:
    m_Mode: 1
    m_Shader: {fileID: 69, guid: 0000000000000000f000000000000000, type: 0}
  m_DeferredReflections:
    m_Mode: 1
    m_Shader: {fileID: 74, guid: 0000000000000000f000000000000000, type: 0}
  m_ScreenSpaceShadows:
    m_Mode: 1
    m_Shader: {fileID: 64, guid: 0000000000000000f000000000000000, type: 0}
  m_LegacyDeferred:
    m_Mode: 1
    m_Shader: {fileID: 63, guid: 0000000000000000f000000000000000, type: 0}
  m_DepthNormals:
    m_Mode: 1
    m_Shader: {fileID: 62, guid: 0000000000000000f000000000000000, type: 0}
  m_MotionVectors:
    m_Mode: 1
    m_Shader: {fileID: 75, guid: 0000000000000000f000000000000000, type: 0}
  m_LightHalo:
    m_Mode: 1
    m_Shader: {fileID: 105, guid: 0000000000000000f000000000000000, type: 0}
  m_LensFlare:
    m_Mode: 1
    m_Shader: {fileID: 102, guid: 0000000000000000f000000000000000, type: 0}
  m_AlwaysIncludedShaders:
  - {fileID: 7, guid: 0000000000000000f000000000000000, type: 0}
  - {fileID: 15104, guid: 0000000000000000f000000000000000, type: 0}
  - {fileID: 15105, guid: 0000000000000000f000000000000000, type: 0}
  - {fileID: 15106, guid: 0000000000000000f000000000000000, type: 0}
  - {fileID: 10753, guid: 0000000000000000f000000000000000, type: 0}
  - {fileID: 10770, guid: 0000000000000000f000000000000000, type: 0}
  - {fileID: 16000, guid: 0000000000000000f000000000000000, type: 0}
  - {fileID: 16001, guid: 0000000000000000f000000000000000, type: 0}
  - {fileID: 17000, guid: 0000000000000000f000000000000000, type: 0}
  - {fileID: 16003, guid: 0000000000000000f000000000000000, type: 0}
  - {fileID: 4800000, guid: c183104a0d06f5c4780d2ec95079ab3f, type: 3}
  - {fileID: 4800000, guid: 772c876c2069d0b488fb2840de6e4f6b, type: 3}
  - {fileID: 4800000, guid: 9cb3ed36f15f80143a80a3903f518c86, type: 3}
  - {fileID: 4800000, guid: 0850b508c5c025442a9d0a4cfe05c747, type: 3}
  - {fileID: 4800000, guid: 7f173d1e98ec5884cbcb1ffe4ec53c52, type: 3}
  m_PreloadedShaders: []
  m_SpritesDefaultMaterial: {fileID: 10754, guid: 0000000000000000f000000000000000,
    type: 0}
  m_CustomRenderPipeline: {fileID: 0}
  m_TransparencySortMode: 2
  m_TransparencySortAxis: {x: 0, y: 0, z: 1}
  m_DefaultRenderingPath: 1
  m_DefaultMobileRenderingPath: 1
  m_TierSettings: []
  m_LightmapStripping: 0
  m_FogStripping: 0
  m_InstancingStripping: 0
  m_LightmapKeepPlain: 1
  m_LightmapKeepDirCombined: 1
  m_LightmapKeepDynamicPlain: 1
  m_LightmapKeepDynamicDirCombined: 1
  m_LightmapKeepShadowMask: 1
  m_LightmapKeepSubtractive: 1
  m_FogKeepLinear: 1
  m_FogKeepExp: 1
  m_FogKeepExp2: 1
  m_AlbedoSwatchInfos: []
  m_LightsUseLinearIntensity: 0
  m_LightsUseColorTemperature: 0
  m_LogWhenShaderIsCompiled: 0
